Psych 251 PS2: Tidying Data
…
There are still a few more steps to go for the performance hypothesis. We need to take a difference score to see how people improved from before hearing the music to after, and then see if the improvement is larger if they heard music congruent with the type of game.

To compute the difference score, we have to make our data a bit wider. We now want to subtract the pre-music scores from the post-music scores, which is easiest to do if they are in two different columns. To do this well use the spread function (which is more or less the opposite of gather)

performance_diff_d = performance_hyp_long_d %>%
  mutate(WithMusic = factor(WithMusic, levels=c(F, T), labels=c("PreMusic", "PostMusic"))) %>% # first, tweak the variable so our code is easier to read.
  select(-c("Score", "Measurement")) %>% # now we remove columns we don't need (bonus: leave them in and see if you can understand what goes wrong!)
  spread(WithMusic, z_scored_performance) %>%
  mutate(ImprovementScore=PostMusic-PreMusic)

Lets take a look at the end result:

performance_diff_d

## # A tibble: 176 x 7
##    Subject  Cond Confrontational MusicCondition PreMusic PostMusic
##      <dbl> <dbl> <lgl>            <fct>             <dbl>     <dbl>
##  1       1     2 FALSE            Exciting          0.262   -0.0751
##  2       1     2 TRUE             Exciting          0.739   -0.205 
##  3       3     1 FALSE            Anger            -2.86    -0.732 
##  4       3     1 TRUE             Anger            -0.150    0.313 
##  5       4     4 FALSE            Anger             1.71     1.48  
##  6       4     4 TRUE             Anger            -1.68    -0.205 
##  7       5     5 FALSE            Exciting          0.311    1.24  
##  8       5     5 TRUE             Exciting          0.231    0.313 
##  9       6     6 FALSE            Neutral           0.960    0.710 
## 10       6     6 TRUE             Neutral           0.866    0.442 
## #  with 166 more rows, and 1 more variable: ImprovementScore <dbl>
…
